Id,Infinitive,FirstPerson,ThirdPerson
8,czyać,czytam,czyta
9,pisać,pisze,pisze
10,oglądać,oglądam,ogląda
11,widzieć,widze,widzi
12,ubierać,ubieram,ubiera
13,zdejmować,zdejmuję,zdejmuje
14,zapinać,zapinam,zapina
15,rozpinać,rozpinam,rozpina
16,wsiadać,wsiadam,wisada
17,wysiadać,wysiadam,wysiada
18,jechać,jadę,jedzie
19,iść,idę,idzie
20,śpiewać,śpiewam,śpiewa
21,grać,gram,gra
22,rysować,rysuję,rysuje
23,malować,maluję,maluje
24,kroić,kroję,kroi
25,smarować,smaruję,smaruje
26,odkręcać,odkręcam,odkręca
27,zakręcać,zakręcam,zakręca
28,gotować,gotuję,gotuje
29,piec,piekę,piecze
30,mieszać,mieszam,miesza
31,nalewać,nalewam,nalewa
32,myć,myję,myje
33,wycirać,wycieram,wyciera
34,prać,piorę,pierze
35,wieszać,wieszam,wiesza
36,siedzieć,siedzę,siedzi
37,leżeć,leżę,leży
38,bawić się,bawie się,bawi się
39,układać,układam,układa
40,jeść,jem,je
41,pić,piję,pije
42,kłaść,kładę,kładzie
43,podnieść,podnoszę,podnosi
44,włączać,włączam,włącza
45,wyłączać,wyłączam,wyłącza
46,otwierać,otwieram,otwiera
47,zamykać,zamykam,zamyka
